{
  "name": "",
  "css_prefix_text": "ic-",
  "css_use_suffix": false,
  "hinting": true,
  "units_per_em": 1000,
  "ascent": 850,
  "glyphs": [
    {
      "uid": "b1887b423d2fd15c345e090320c91ca0",
      "css": "grid",
      "code": 59392,
      "src": "fontawesome"
    },
    {
      "uid": "f805bb95d40c7ef2bc51b3d50d4f2e5c",
      "css": "list",
      "code": 59393,
      "src": "fontawesome"
    },
    {
      "uid": "d73eceadda1f594cec0536087539afbf",
      "css": "heart",
      "code": 59394,
      "src": "fontawesome"
    },
    {
      "uid": "f3dc2d6d8fe9cf9ebff84dc260888cdf",
      "css": "heart-empty",
      "code": 59395,
      "src": "fontawesome"
    },
    {
      "uid": "474656633f79ea2f1dad59ff63f6bf07",
      "css": "star",
      "code": 59396,
      "src": "fontawesome"
    },
    {
      "uid": "d17030afaecc1e1c22349b99f3c4992a",
      "css": "star-empty",
      "code": 59397,
      "src": "fontawesome"
    },
    {
      "uid": "d35a1d35efeb784d1dc9ac18b9b6c2b6",
      "css": "pencil",
      "code": 59398,
      "src": "fontawesome"
    },
    {
      "uid": "bf882b30900da12fca090d9796bc3030",
      "css": "mail",
      "code": 59399,
      "src": "fontawesome"
    },
    {
      "uid": "a73c5deb486c8d66249811642e5d719a",
      "css": "arrows-cw",
      "code": 59408,
      "src": "fontawesome"
    },
    {
      "uid": "53ed8570225581269cd7eff5795e8bea",
      "css": "emo-unhappy",
      "code": 59409,
      "src": "fontelico"
    },
    {
      "uid": "c709da589c923ba3c2ad48d9fc563e93",
      "css": "cancel-1",
      "code": 59411,
      "src": "entypo"
    },
    {
      "uid": "06301c50d89b5d3e651bd07ebd6d7de7",
      "css": "cancel",
      "code": 59410,
      "src": "mfglabs"
    },
    {
      "uid": "381da2c2f7fd51f8de877c044d7f439d",
      "css": "picture",
      "code": 59412,
      "src": "fontawesome"
    },
    {
      "uid": "9bc2902722abb366a213a052ade360bc",
      "css": "spin6",
      "code": 59449,
      "src": "fontelico"
    },
    {
      "uid": "cda0cdcfd38f5f1d9255e722dad42012",
      "css": "spinner",
      "code": 61712,
      "src": "fontawesome"
    },
    {
      "uid": "2a6740fc2f9d0edea54205963f662594",
      "css": "spin3",
      "code": 59442,
      "src": "fontelico"
    },
    {
      "uid": "5d2d07f112b8de19f2c0dbfec3e42c05",
      "css": "spin5",
      "code": 59448,
      "src": "fontelico"
    },
    {
      "uid": "243424d56528e83e4fe9ef6e6347a2ef",
      "css": "rouble",
      "code": 61784,
      "src": "fontawesome"
    },
    {
      "uid": "026007bd17bfc67f3fe013199676f620",
      "css": "dollar",
      "code": 61781,
      "src": "fontawesome"
    },
    {
      "uid": "486b835e9eebf54eee78ed12b4291b86",
      "css": "euro",
      "code": 61779,
      "src": "fontawesome"
    },
    {
      "uid": "9dd9e835aebe1060ba7190ad2b2ed951",
      "css": "search",
      "code": 59401,
      "src": "fontawesome"
    },
    {
      "uid": "291e2e127efe7a6bc580af6d3ead3771",
      "css": "location",
      "code": 61489,
      "src": "mfglabs"
    },
    {
      "uid": "22cfc7af2c4f158b37317c65c92b48c2",
      "css": "location-1",
      "code": 59400,
      "src": "elusive"
    },
    {
      "uid": "040e72500c863813088c9f9c9415f8e9",
      "css": "up",
      "code": 59402,
      "src": "mfglabs"
    },
    {
      "uid": "3838a5aba604532d2dbae5904615ea39",
      "css": "down",
      "code": 59403,
      "src": "mfglabs"
    },
    {
      "uid": "17ebadd1e3f274ff0205601eef7b9cc4",
      "css": "help-circled",
      "code": 59404,
      "src": "fontawesome"
    }
  ]
}